{
  "data": [
    {
      "id": "cmn4svdpw007hs4fclor4i9xm",
      "displayName": "---",
      "slug": "profile-1774367961908",
      "email": null,
      "github": null,
      "githubAccountId": null,
      "twitter": null,
      "linkedin": null,
      "website": null,
      "telegram": null,
      "walletAddresses": [],
      "onChainName": null,
      "onChainVerified": false,
      "bio": null,
      "skills": [],
      "location": null,
      "source": "FAST_GRANTS",
      "sourceData": {
        "importSource": "fast-grants",
        "originalName": "---"
      },
      "contactable": false,
      "outreachStatus": null,
      "outreachSentAt": null,
      "claimedByUserId": null,
      "claimedAt": null,
      "claimMethod": null,
      "createdAt": "2026-03-24T15:59:21.908Z",
      "updatedAt": "2026-03-24T15:59:21.908Z",
      "claimedBy": null,
      "_count": {
        "contributions": 0,
        "claimRequests": 0
      }
    },
    {
      "id": "cmn4svdpv007es4fcxkykqnen",
      "displayName": "Walf Media Kit",
      "slug": "walf-media-kit",
      "email": null,
      "github": null,
      "githubAccountId": null,
      "twitter": null,
      "linkedin": null,
      "website": null,
      "telegram": null,
      "walletAddresses": [],
      "onChainName": null,
      "onChainVerified": false,
      "bio": null,
      "skills": [],
      "location": null,
      "source": "FAST_GRANTS",
      "sourceData": {
        "role": "More details",
        "importSource": "fast-grants",
        "originalName": "Walf Media Kit"
      },
      "contactable": false,
      "outreachStatus": null,
      "outreachSentAt": null,
      "claimedByUserId": null,
      "claimedAt": null,
      "claimMethod": null,
      "createdAt": "2026-03-24T15:59:21.907Z",
      "updatedAt": "2026-03-24T15:59:21.907Z",
      "claimedBy": null,
      "_count": {
        "contributions": 0,
        "claimRequests": 0
      }
    },
    {
      "id": "cmn4svdpu007bs4fc94rxaghj",
      "displayName": "Team Experience",
      "slug": "team-experience",
      "email": null,
      "github": null,
      "githubAccountId": null,
      "twitter": null,
      "linkedin": null,
      "website": null,
      "telegram": null,
      "walletAddresses": [],
      "onChainName": null,
      "onChainVerified": false,
      "bio": null,
      "skills": [],
      "location": null,
      "source": "FAST_GRANTS",
      "sourceData": {
        "importSource": "fast-grants",
        "originalName": "Team Experience"
      },
      "contactable": false,
      "outreachStatus": null,
      "outreachSentAt": null,
      "claimedByUserId": null,
      "claimedAt": null,
      "claimMethod": null,
      "createdAt": "2026-03-24T15:59:21.906Z",
      "updatedAt": "2026-03-24T15:59:21.906Z",
      "claimedBy": null,
      "_count": {
        "contributions": 0,
        "claimRequests": 0
      }
    },
    {
      "id": "cmn4svdps0078s4fcs87daqhx",
      "displayName": "Team Code Repo",
      "slug": "team-code-repo",
      "email": null,
      "github": null,
      "githubAccountId": null,
      "twitter": null,
      "linkedin": null,
      "website": null,
      "telegram": null,
      "walletAddresses": [],
      "onChainName": null,
      "onChainVerified": false,
      "bio": null,
      "skills": [],
      "location": null,
      "source": "FAST_GRANTS",
      "sourceData": {
        "importSource": "fast-grants",
        "originalName": "Team Code Repo"
      },
      "contactable": false,
      "outreachStatus": null,
      "outreachSentAt": null,
      "claimedByUserId": null,
      "claimedAt": null,
      "claimMethod": null,
      "createdAt": "2026-03-24T15:59:21.905Z",
      "updatedAt": "2026-03-24T15:59:21.905Z",
      "claimedBy": null,
      "_count": {
        "contributions": 0,
        "claimRequests": 0
      }
    },
    {
      "id": "cmn4svdpr0075s4fcnjs4k0ml",
      "displayName": "Chidi Agwunobi",
      "slug": "chidi-agwunobi",
      "email": null,
      "github": null,
      "githubAccountId": null,
      "twitter": null,
      "linkedin": null,
      "website": null,
      "telegram": null,
      "walletAddresses": [],
      "onChainName": null,
      "onChainVerified": false,
      "bio": null,
      "skills": [],
      "location": null,
      "source": "FAST_GRANTS",
      "sourceData": {
        "importSource": "fast-grants",
        "originalName": "Chidi Agwunobi"
      },
      "contactable": false,
      "outreachStatus": null,
      "outreachSentAt": null,
      "claimedByUserId": null,
      "claimedAt": null,
      "claimMethod": null,
      "createdAt": "2026-03-24T15:59:21.904Z",
      "updatedAt": "2026-03-24T15:59:21.904Z",
      "claimedBy": null,
      "_count": {
        "contributions": 0,
        "claimRequests": 0
      }
    },
    {
      "id": "cmn4svdpq0072s4fc41crhkwa",
      "displayName": "Founder",
      "slug": "founder",
      "email": null,
      "github": null,
      "githubAccountId": null,
      "twitter": null,
      "linkedin": null,
      "website": null,
      "telegram": null,
      "walletAddresses": [],
      "onChainName": null,
      "onChainVerified": false,
      "bio": null,
      "skills": [],
      "location": null,
      "source": "FAST_GRANTS",
      "sourceData": {
        "importSource": "fast-grants",
        "originalName": "Founder"
      },
      "contactable": false,
      "outreachStatus": null,
      "outreachSentAt": null,
      "claimedByUserId": null,
      "claimedAt": null,
      "claimMethod": null,
      "createdAt": "2026-03-24T15:59:21.902Z",
      "updatedAt": "2026-03-24T15:59:21.902Z",
      "claimedBy": null,
      "_count": {
        "contributions": 0,
        "claimRequests": 0
      }
    },
    {
      "id": "cmn4svdpn006xs4fcfffvfd9i",
      "displayName": "Wei Rong Chu",
      "slug": "wei-rong-chu",
      "email": null,
      "github": null,
      "githubAccountId": null,
      "twitter": null,
      "linkedin": null,
      "website": null,
      "telegram": null,
      "walletAddresses": [],
      "onChainName": null,
      "onChainVerified": false,
      "bio": null,
      "skills": [],
      "location": null,
      "source": "FAST_GRANTS",
      "sourceData": {
        "importSource": "fast-grants",
        "originalName": "Wei Rong Chu"
      },
      "contactable": false,
      "outreachStatus": null,
      "outreachSentAt": null,
      "claimedByUserId": null,
      "claimedAt": null,
      "claimMethod": null,
      "createdAt": "2026-03-24T15:59:21.900Z",
      "updatedAt": "2026-03-24T15:59:21.900Z",
      "claimedBy": null,
      "_count": {
        "contributions": 0,
        "claimRequests": 0
      }
    },
    {
      "id": "cmn4svdpm006us4fcgmfh10ql",
      "displayName": "Kyoeun Kim",
      "slug": "kyoeun-kim",
      "email": null,
      "github": null,
      "githubAccountId": null,
      "twitter": null,
      "linkedin": null,
      "website": null,
      "telegram": null,
      "walletAddresses": [],
      "onChainName": null,
      "onChainVerified": false,
      "bio": null,
      "skills": [],
      "location": null,
      "source": "FAST_GRANTS",
      "sourceData": {
        "importSource": "fast-grants",
        "originalName": "Kyoeun Kim"
      },
      "contactable": false,
      "outreachStatus": null,
      "outreachSentAt": null,
      "claimedByUserId": null,
      "claimedAt": null,
      "claimMethod": null,
      "createdAt": "2026-03-24T15:59:21.899Z",
      "updatedAt": "2026-03-24T15:59:21.899Z",
      "claimedBy": null,
      "_count": {
        "contributions": 0,
        "claimRequests": 0
      }
    },
    {
      "id": "cmn4svdpl006rs4fc9tvlirlo",
      "displayName": "Kai Jie Leow",
      "slug": "kai-jie-leow",
      "email": null,
      "github": null,
      "githubAccountId": null,
      "twitter": null,
      "linkedin": null,
      "website": null,
      "telegram": null,
      "walletAddresses": [],
      "onChainName": null,
      "onChainVerified": false,
      "bio": null,
      "skills": [],
      "location": null,
      "source": "FAST_GRANTS",
      "sourceData": {
        "importSource": "fast-grants",
        "originalName": "Kai Jie Leow"
      },
      "contactable": false,
      "outreachStatus": null,
      "outreachSentAt": null,
      "claimedByUserId": null,
      "claimedAt": null,
      "claimMethod": null,
      "createdAt": "2026-03-24T15:59:21.898Z",
      "updatedAt": "2026-03-24T15:59:21.898Z",
      "claimedBy": null,
      "_count": {
        "contributions": 0,
        "claimRequests": 0
      }
    },
    {
      "id": "cmn4svdpj006os4fcp3296t3m",
      "displayName": "Charlyn Kwan Ting Yu",
      "slug": "charlyn-kwan-ting-yu",
      "email": "<chuweiron18@gmail.com>",
      "github": null,
      "githubAccountId": null,
      "twitter": null,
      "linkedin": null,
      "website": "<https://github.com/wr1159/stamply>",
      "telegram": null,
      "walletAddresses": [],
      "onChainName": null,
      "onChainVerified": false,
      "bio": null,
      "skills": [],
      "location": null,
      "source": "FAST_GRANTS",
      "sourceData": {
        "importSource": "fast-grants",
        "originalName": "Charlyn Kwan Ting Yu"
      },
      "contactable": true,
      "outreachStatus": "PENDING",
      "outreachSentAt": null,
      "claimedByUserId": null,
      "claimedAt": null,
      "claimMethod": null,
      "createdAt": "2026-03-24T15:59:21.896Z",
      "updatedAt": "2026-03-24T15:59:21.896Z",
      "claimedBy": null,
      "_count": {
        "contributions": 0,
        "claimRequests": 0
      }
    },
    {
      "id": "cmn4svdpf006js4fcd76yef69",
      "displayName": "Miles Patterson",
      "slug": "miles-patterson",
      "email": "milesbrentpatterson@proton.me",
      "github": null,
      "githubAccountId": null,
      "twitter": null,
      "linkedin": null,
      "website": "https://github.com/scaffold-dot",
      "telegram": null,
      "walletAddresses": [],
      "onChainName": null,
      "onChainVerified": false,
      "bio": null,
      "skills": [],
      "location": null,
      "source": "FAST_GRANTS",
      "sourceData": {
        "importSource": "fast-grants",
        "originalName": "Miles Patterson"
      },
      "contactable": true,
      "outreachStatus": "PENDING",
      "outreachSentAt": null,
      "claimedByUserId": null,
      "claimedAt": null,
      "claimMethod": null,
      "createdAt": "2026-03-24T15:59:21.891Z",
      "updatedAt": "2026-03-24T15:59:21.891Z",
      "claimedBy": null,
      "_count": {
        "contributions": 0,
        "claimRequests": 0
      }
    },
    {
      "id": "cmn4svdpb006es4fc4947f3q2",
      "displayName": "Team Member 2",
      "slug": "worthingtravis",
      "email": null,
      "github": "worthingtravis",
      "githubAccountId": "11166509",
      "twitter": null,
      "linkedin": null,
      "website": null,
      "telegram": null,
      "walletAddresses": [],
      "onChainName": null,
      "onChainVerified": false,
      "bio": null,
      "skills": [],
      "location": null,
      "source": "FAST_GRANTS",
      "sourceData": {
        "importSource": "fast-grants",
        "originalName": "Team Member 2"
      },
      "contactable": false,
      "outreachStatus": null,
      "outreachSentAt": null,
      "claimedByUserId": null,
      "claimedAt": null,
      "claimMethod": null,
      "createdAt": "2026-03-24T15:59:21.887Z",
      "updatedAt": "2026-03-24T15:59:21.887Z",
      "claimedBy": null,
      "_count": {
        "contributions": 0,
        "claimRequests": 0
      }
    },
    {
      "id": "cmn4svdp8006bs4fc9mtagk8g",
      "displayName": "Team Member 1",
      "slug": "paulsacred",
      "email": null,
      "github": "paulsacred",
      "githubAccountId": "144197120",
      "twitter": null,
      "linkedin": null,
      "website": null,
      "telegram": null,
      "walletAddresses": [],
      "onChainName": null,
      "onChainVerified": false,
      "bio": null,
      "skills": [],
      "location": null,
      "source": "FAST_GRANTS",
      "sourceData": {
        "importSource": "fast-grants",
        "originalName": "Team Member 1"
      },
      "contactable": false,
      "outreachStatus": null,
      "outreachSentAt": null,
      "claimedByUserId": null,
      "claimedAt": null,
      "claimMethod": null,
      "createdAt": "2026-03-24T15:59:21.884Z",
      "updatedAt": "2026-03-24T15:59:21.884Z",
      "claimedBy": null,
      "_count": {
        "contributions": 0,
        "claimRequests": 0
      }
    },
    {
      "id": "cmn4svdp50068s4fc2q1ck2pj",
      "displayName": "Organisation",
      "slug": "sacred-protocol",
      "email": null,
      "github": "sacred-protocol",
      "githubAccountId": "81839561",
      "twitter": null,
      "linkedin": null,
      "website": null,
      "telegram": null,
      "walletAddresses": [],
      "onChainName": null,
      "onChainVerified": false,
      "bio": null,
      "skills": [],
      "location": null,
      "source": "FAST_GRANTS",
      "sourceData": {
        "importSource": "fast-grants",
        "originalName": "Organisation"
      },
      "contactable": false,
      "outreachStatus": null,
      "outreachSentAt": null,
      "claimedByUserId": null,
      "claimedAt": null,
      "claimMethod": null,
      "createdAt": "2026-03-24T15:59:21.881Z",
      "updatedAt": "2026-03-24T15:59:21.881Z",
      "claimedBy": null,
      "_count": {
        "contributions": 0,
        "claimRequests": 0
      }
    },
    {
      "id": "cmn4svdp30065s4fcrmtjp7rh",
      "displayName": "h. Team Code Repos",
      "slug": "h-team-code-repos",
      "email": null,
      "github": null,
      "githubAccountId": null,
      "twitter": null,
      "linkedin": null,
      "website": null,
      "telegram": null,
      "walletAddresses": [],
      "onChainName": null,
      "onChainVerified": false,
      "bio": null,
      "skills": [],
      "location": null,
      "source": "FAST_GRANTS",
      "sourceData": {
        "importSource": "fast-grants",
        "originalName": "h. Team Code Repos"
      },
      "contactable": false,
      "outreachStatus": null,
      "outreachSentAt": null,
      "claimedByUserId": null,
      "claimedAt": null,
      "claimMethod": null,
      "createdAt": "2026-03-24T15:59:21.879Z",
      "updatedAt": "2026-03-24T15:59:21.879Z",
      "claimedBy": null,
      "_count": {
        "contributions": 0,
        "claimRequests": 0
      }
    },
    {
      "id": "cmn4svdp10062s4fc9wsi6d3l",
      "displayName": "Edward Buchi",
      "slug": "edward-buchi",
      "email": null,
      "github": null,
      "githubAccountId": null,
      "twitter": null,
      "linkedin": null,
      "website": null,
      "telegram": null,
      "walletAddresses": [],
      "onChainName": null,
      "onChainVerified": false,
      "bio": null,
      "skills": [],
      "location": null,
      "source": "FAST_GRANTS",
      "sourceData": {
        "importSource": "fast-grants",
        "originalName": "Edward Buchi"
      },
      "contactable": false,
      "outreachStatus": null,
      "outreachSentAt": null,
      "claimedByUserId": null,
      "claimedAt": null,
      "claimMethod": null,
      "createdAt": "2026-03-24T15:59:21.877Z",
      "updatedAt": "2026-03-24T15:59:21.877Z",
      "claimedBy": null,
      "_count": {
        "contributions": 0,
        "claimRequests": 0
      }
    },
    {
      "id": "cmn4svdp0005zs4fcevrvu7bg",
      "displayName": "g. LinkedIn",
      "slug": "g-linkedin",
      "email": null,
      "github": null,
      "githubAccountId": null,
      "twitter": null,
      "linkedin": null,
      "website": null,
      "telegram": null,
      "walletAddresses": [],
      "onChainName": null,
      "onChainVerified": false,
      "bio": null,
      "skills": [],
      "location": null,
      "source": "FAST_GRANTS",
      "sourceData": {
        "importSource": "fast-grants",
        "originalName": "g. LinkedIn"
      },
      "contactable": false,
      "outreachStatus": null,
      "outreachSentAt": null,
      "claimedByUserId": null,
      "claimedAt": null,
      "claimMethod": null,
      "createdAt": "2026-03-24T15:59:21.876Z",
      "updatedAt": "2026-03-24T15:59:21.876Z",
      "claimedBy": null,
      "_count": {
        "contributions": 0,
        "claimRequests": 0
      }
    },
    {
      "id": "cmn4svdoy005ws4fc1k8yt2pk",
      "displayName": "Travis – Lead Developer",
      "slug": "travis-lead-developer",
      "email": null,
      "github": null,
      "githubAccountId": null,
      "twitter": null,
      "linkedin": null,
      "website": null,
      "telegram": null,
      "walletAddresses": [],
      "onChainName": null,
      "onChainVerified": false,
      "bio": null,
      "skills": [],
      "location": null,
      "source": "FAST_GRANTS",
      "sourceData": {
        "importSource": "fast-grants",
        "originalName": "Travis – Lead Developer"
      },
      "contactable": false,
      "outreachStatus": null,
      "outreachSentAt": null,
      "claimedByUserId": null,
      "claimedAt": null,
      "claimMethod": null,
      "createdAt": "2026-03-24T15:59:21.875Z",
      "updatedAt": "2026-03-24T15:59:21.875Z",
      "claimedBy": null,
      "_count": {
        "contributions": 0,
        "claimRequests": 0
      }
    },
    {
      "id": "cmn4svdox005ts4fcpkzhe9dr",
      "displayName": "Paul",
      "slug": "paul",
      "email": null,
      "github": null,
      "githubAccountId": null,
      "twitter": null,
      "linkedin": null,
      "website": null,
      "telegram": null,
      "walletAddresses": [],
      "onChainName": null,
      "onChainVerified": false,
      "bio": null,
      "skills": [],
      "location": null,
      "source": "FAST_GRANTS",
      "sourceData": {
        "role": "CTO",
        "importSource": "fast-grants",
        "originalName": "Paul"
      },
      "contactable": false,
      "outreachStatus": null,
      "outreachSentAt": null,
      "claimedByUserId": null,
      "claimedAt": null,
      "claimMethod": null,
      "createdAt": "2026-03-24T15:59:21.874Z",
      "updatedAt": "2026-03-24T15:59:21.874Z",
      "claimedBy": null,
      "_count": {
        "contributions": 0,
        "claimRequests": 0
      }
    },
    {
      "id": "cmn4svdov005ns4fcq6lf47ry",
      "displayName": "f. Team Members",
      "slug": "f-team-members",
      "email": null,
      "github": null,
      "githubAccountId": null,
      "twitter": null,
      "linkedin": null,
      "website": null,
      "telegram": null,
      "walletAddresses": [],
      "onChainName": null,
      "onChainVerified": false,
      "bio": null,
      "skills": [],
      "location": null,
      "source": "FAST_GRANTS",
      "sourceData": {
        "importSource": "fast-grants",
        "originalName": "f. Team Members"
      },
      "contactable": false,
      "outreachStatus": null,
      "outreachSentAt": null,
      "claimedByUserId": null,
      "claimedAt": null,
      "claimMethod": null,
      "createdAt": "2026-03-24T15:59:21.872Z",
      "updatedAt": "2026-03-24T15:59:21.872Z",
      "claimedBy": null,
      "_count": {
        "contributions": 0,
        "claimRequests": 0
      }
    }
  ],
  "pagination": {
    "page": 1,
    "limit": 20,
    "total": 1426,
    "totalPages": 72
  }
}
